<svg xmlns="http://www.w3.org/2000/svg" viewBox="0 0 71 71" width="71" height="71">
	<defs>
		<filter id="flt1"> <feColorMatrix in="SourceGraphic" type="matrix" values="0 0 0 0 1   0 0 0 0 1   0 0 0 0 1   0 0 0 1 0" /> </filter>
	</defs>
	<style>
		tspan { white-space:pre }
		.shp0 { filter: url(#flt1);fill: #ffffff } 
	</style>
	<path id="icon-play" class="shp0" d="M30.93 52.82C30.64 52.82 30.34 52.76 30.06 52.63C29.34 52.29 28.87 51.56 28.87 50.76L28.87 21.24C28.87 20.44 29.34 19.71 30.06 19.37C30.78 19.03 31.64 19.14 32.25 19.65L49.97 34.42C50.44 34.81 50.71 35.39 50.71 36C50.71 36.61 50.44 37.19 49.97 37.58L32.25 52.34C31.88 52.66 31.41 52.82 30.93 52.82ZM32.99 25.63L32.99 46.36L45.43 36L32.99 25.63ZM35.94 71C30.07 71 24.17 69.54 18.83 66.53C17.84 65.97 17.49 64.71 18.05 63.72C18.6 62.73 19.86 62.38 20.85 62.94C32.87 69.7 48.08 67.61 57.85 57.85C69.89 45.8 69.89 26.2 57.85 14.15C45.8 2.1 26.2 2.1 14.15 14.15C2.1 26.2 2.1 45.8 14.15 57.85C14.95 58.65 14.95 59.95 14.15 60.76C13.35 61.56 12.04 61.56 11.24 60.76C-2.42 47.1 -2.42 24.89 11.24 11.24C24.89 -2.42 47.1 -2.42 60.76 11.24C74.41 24.89 74.41 47.1 60.76 60.76C54.03 67.48 45.03 71 35.94 71Z" />
</svg>